TOMTOM Cutoff Investigation
…
dim(all.hoco %>% filter(logP >= 8))

## [1] 746  11

Lets go ahead and take our value of 5 x 10^-8 from before, corresponding to a logP of 7.3; thats the threshold that cuts off finding ALL of our JASPAR motifs. Using that value, well narrow down our dataset. Well also create a summary of how many times each motif is there

above.p <- all.hoco %>% filter(logP >= 7.3)

above.p %>% 
  group_by(Query.ID) %>% 
  summarise(Num.Hits = n(), Max.p = max(Pvalue), Min.p = min(Pvalue)) %>% 
  arrange(desc(Num.Hits))

## # A tibble: 417 x 4
##                                    Query.ID Num.Hits       Max.p
##                                      <fctr>    <int>       <dbl>
##  1  Hsapiens-HOCOMOCOv10-GSX2_HUMAN.H10MO.D       16 3.65495e-08
##  2  Hsapiens-HOCOMOCOv10-ELK4_HUMAN.H10MO.A       15 3.98607e-08
##  3  Hsapiens-HOCOMOCOv10-HXB3_HUMAN.H10MO.D       12 4.54637e-08
##  4  Hsapiens-HOCOMOCOv10-ELK1_HUMAN.H10MO.A       11 3.01506e-08
##  5  Hsapiens-HOCOMOCOv10-ESX1_HUMAN.H10MO.D       10 4.75367e-08
##  6  Hsapiens-HOCOMOCOv10-ETV6_HUMAN.H10MO.D       10 4.34482e-08
##  7  Hsapiens-HOCOMOCOv10-ELF1_HUMAN.H10MO.A        9 2.22029e-08
##  8  Hsapiens-HOCOMOCOv10-ETS1_HUMAN.H10MO.C        9 3.49882e-08
##  9  Hsapiens-HOCOMOCOv10-HME1_HUMAN.H10MO.D        9 5.00194e-08
## 10 Hsapiens-HOCOMOCOv10-NKX61_HUMAN.H10MO.D        9 2.74822e-08
## # ... with 407 more rows, and 1 more variables: Min.p <dbl>
…
